<svg width="30" height="30" viewBox="0 0 30 30" fill="none" xmlns="http://www.w3.org/2000/svg">
<g clip-path="url(#clip0_380_2017)">
<path d="M8.32667 7.22222C8.4 8.21111 8.58333 9.17778 8.87667 10.1L7.41 11.4333C6.90889 10.1 6.59111 8.68889 6.48111 7.22222H8.32667ZM20.3778 20.5778C21.4167 20.8444 22.48 21.0111 23.5556 21.0778V22.7333C21.9422 22.6333 20.39 22.3444 18.9111 21.9L20.3778 20.5778ZM9.5 5H5.22222C4.55 5 4 5.5 4 6.11111C4 16.5444 13.3011 25 24.7778 25C25.45 25 26 24.5 26 23.8889V20.0111C26 19.4 25.45 18.9 24.7778 18.9C23.2622 18.9 21.7833 18.6778 20.4144 18.2667C20.2922 18.2222 20.1578 18.2111 20.0356 18.2111C19.7178 18.2111 19.4122 18.3222 19.1678 18.5333L16.4789 20.9778C13.02 19.3667 10.1844 16.8 8.42444 13.6556L11.1133 11.2111C11.4556 10.9 11.5533 10.4667 11.4189 10.0778C10.9667 8.83333 10.7222 7.5 10.7222 6.11111C10.7222 5.5 10.1722 5 9.5 5Z" fill="#89594F"/>
</g>
<defs>
<clipPath id="clip0_380_2017">
<rect width="30" height="30" fill="white"/>
</clipPath>
</defs>
</svg>
